{
  "anchorTexts": [
    {
      "nofollow": 436443708,
      "links": 6839794224,
      "text": "Go"
    },
    {
      "nofollow": 199659979,
      "links": 5863963535,
      "text": "Click to continue"
    },
    {
      "nofollow": 418768103,
      "links": 903296475,
      "text": "Show me"
    },
    {
      "nofollow": 213163055,
      "links": 7760957284,
      "text": "Share"
    },
    {
      "nofollow": 918175045,
      "links": 5537987773,
      "text": "Twitter"
    }
  ],
  "linksByLanguages": {
    "japanese": {
      "value": 39903,
      "label": "Japanese",
      "locale": "ja",
      "id": "japanese"
    },
    "spanish": {
      "value": 66389776,
      "label": "Spanish",
      "locale": "es-es",
      "id": "spanish"
    },
    "chinese": {
      "value": 459846642,
      "label": "Chinese",
      "locale": "zh-cn",
      "id": "chinese"
    },
    "english": {
      "value": 6446771572,
      "label": "English",
      "id": "english"
    }
  },
  "links": {
    "linksToUnexisting": 98536173,
    "linksToBroken": 631973680,
    "linksToBlocked": 717028036,
    "uniqueAnchorTexts": 110936917,
    "externalLinks": 410239008
  }
}
